<?xml version="1.0" encoding="iso-8859-1"?>
<!-- Generator: Adobe Illustrator 19.0.0, SVG Export Plug-In . SVG Version: 6.00 Build 0)  -->
<svg version="1.1" id="Layer_1" xmlns="http://www.w3.org/2000/svg" x="0px"
     y="0px"
     viewBox="0 0 291.346 291.346" style="enable-background:new 0 0 291.346 291.346;" xml:space="preserve">
<g>
	<path style="fill:#26A6D1;" d="M117.547,266.156L0,249.141v-94.296h117.547V266.156z"/>
    <path style="fill:#3DB39E;" d="M291.346,136.51H136.31l0.055-114.06L291.346,0.009V136.51z"/>
    <path style="fill:#F4B459;" d="M291.346,291.337l-155.091-22.459l0.182-114.015h154.909V291.337z"/>
    <path style="fill:#E2574C;" d="M117.547,136.51H0V42.205l117.547-17.024V136.51z"/>
</g>
    <g>
</g>
    <g>
</g>
    <g>
</g>
    <g>
</g>
    <g>
</g>
    <g>
</g>
    <g>
</g>
    <g>
</g>
    <g>
</g>
    <g>
</g>
    <g>
</g>
    <g>
</g>
    <g>
</g>
    <g>
</g>
    <g>
</g>
</svg>
