{
  "hosting": [
    {
      "target": "wells-sonae-751b2",
      "public": "dist/Wells-level",
      "headers": [
        {
          "source": "/**",
          "headers": [
            {
              "key": "Cache-Control",
              "value": "max-age=604800,s-maxage=604800"
            }
          ]
        },
        {
          "source": "**/*.@(jpg|jpeg|gif|png|svg|webp|js|css|eot|otf|ttf|ttc|woff|woff2|font.css|ico|webmanifest)",
          "headers": [
            {
              "key": "Cache-Control",
              "value": "max-age=31536000,s-maxage=31536000"
            }
          ]
        }
      ],
      "ignore": [
        "firebase.json",
        "**/.*",
        "**/node_modules/**"
      ],
      "rewrites": [
        {
          "source": "**",
          "destination": "/index.html"
        }
      ]
    }
  ]
}
